{
    "manifest_version": 2,
    "version": "1.0.0",
    "name": "Jellyfish",
    "description": "This extension is unofficial extension to publish, search and consume public data assets of Ocean Protocol Commons",
    "icons": {
        "512": "jellyfish-512.png",
        "128": "jellyfish-128.png",
        "16": "jellyfish-16.png",
        "48": "jellyfish-48.png"
    },
    "browser_action": {
        "default_popup": "index.html",
        "default_title": "Click to activate Jellyfish",
        "default_icon": {
            "16": "jellyfish-16.png",
            "48": "jellyfish-48.png"
        }
    },
    "browser_specific_settings": {
        "gecko": {
            "id": "addon@example.com",
            "strict_min_version": "42.0"
        }
    },
    "developer": {
        "name": "Dhaval Kalavadiya",
        "url": "http://oceanprotocol.com"
    },
    "permissions": [
        "http://*/",
        "https://*/",
        "webNavigation"
    ],
    "content_security_policy": "default-src 'self' https://*.oceanprotocol.com 'sha256-hsQVIVNKG3pocCYi0/+AXJCf5SErJNT8L6rpR04al9s='; script-src 'self' 'sha256-hsQVIVNKG3pocCYi0/+AXJCf5SErJNT8L6rpR04al9s='; font-src 'self' data: 'sha256-hsQVIVNKG3pocCYi0/+AXJCf5SErJNT8L6rpR04al9s='"
}